# This file may be used to create an environment using:
# $ conda create --name <env> --file <this file>
# platform: win-64
aom=3.6.1=h63175ca_0
blas=1.0=mkl
blosc=1.21.5=hdccc3a2_0
brotli=1.0.9=hcfcfb64_9
brotli-bin=1.0.9=hcfcfb64_9
brotli-python=1.0.9=py38hd77b12b_7
bzip2=1.0.8=hcfcfb64_5
ca-certificates=2023.12.12=haa95532_0
cairo=1.16.0=hd694305_1014
catalogue=2.0.10=py38haa244fe_0
certifi=2023.11.17=pyhd8ed1ab_0
cffi=1.16.0=py38h2bbff1b_0
cfitsio=3.470=h0af3d06_7
charls=2.2.0=h39d44d4_0
charset-normalizer=2.0.4=pyhd3eb1b0_0
click=7.1.2=pyh9f0ad1d_0
colorama=0.4.6=pyhd8ed1ab_0
contourpy=1.1.1=py38hb1fd069_1
cpuonly=2.0=0
cryptography=41.0.7=py38h89fc84f_0
cycler=0.12.1=pyhd8ed1ab_0
cymem=2.0.8=py38hd3f51b4_1
cython-blis=0.7.10=py38he7056a7_2
dataclasses=0.8=pyhc8e2a94_3
dav1d=1.2.1=hcfcfb64_0
expat=2.5.0=h63175ca_1
fastai=2.7.13=pyhd8ed1ab_0
fastcore=1.5.29=pyhd8ed1ab_0
fastdownload=0.0.7=pyhd8ed1ab_0
fastprogress=1.0.3=pyhd8ed1ab_0
ffmpeg=5.1.2=gpl_h8bb4bc8_112
filelock=3.13.1=py38haa95532_0
font-ttf-dejavu-sans-mono=2.37=hab24e00_0
font-ttf-inconsolata=3.000=h77eed37_0
font-ttf-source-code-pro=2.038=h77eed37_0
font-ttf-ubuntu=0.83=h77eed37_1
fontconfig=2.14.2=hbde0cde_0
fonts-conda-ecosystem=1=0
fonts-conda-forge=1=0
fonttools=4.47.2=py38h91455d4_0
freeglut=3.2.2=h63175ca_2
freetype=2.12.1=ha860e81_0
gettext=0.21.1=h5728263_0
giflib=5.2.1=h8cc25b3_3
glib=2.78.3=h12be248_0
glib-tools=2.78.3=h12be248_0
gmpy2=2.1.2=py38h7f96b67_0
graphite2=1.3.13=1000
gst-plugins-base=1.22.8=h001b923_1
gstreamer=1.22.8=hb4038d2_1
harfbuzz=6.0.0=he256f1b_0
huggingface_hub=0.0.8=pyhd8ed1ab_0
icu=70.1=h0e60522_0
idna=3.4=py38haa95532_0
imagecodecs=2023.1.23=py38h6c6a46e_0
imageio=2.33.1=pyh8c1a49c_0
importlib-metadata=7.0.1=pyha770c72_0
importlib-resources=6.1.1=pyhd8ed1ab_0
importlib_metadata=7.0.1=hd8ed1ab_0
importlib_resources=6.1.1=pyhd8ed1ab_0
intel-openmp=2023.1.0=h59b6b97_46320
jasper=2.0.33=hc2e4405_1
jinja2=3.1.2=py38haa95532_0
joblib=1.3.2=pyhd8ed1ab_0
jpeg=9e=h2bbff1b_1
kiwisolver=1.4.5=py38hb1fd069_1
krb5=1.20.1=heb0366b_0
lazy_loader=0.3=pyhd8ed1ab_0
lcms2=2.15=ha5c8aab_0
lerc=3.0=hd77b12b_0
libaec=1.1.2=h63175ca_1
libavif=0.11.1=h2bbff1b_0
libblas=3.9.0=1_h8933c1f_netlib
libbrotlicommon=1.0.9=hcfcfb64_9
libbrotlidec=1.0.9=hcfcfb64_9
libbrotlienc=1.0.9=hcfcfb64_9
libcblas=3.9.0=5_hd5c7e75_netlib
libclang=15.0.7=default_hde6756a_4
libclang13=15.0.7=default_h85b4d89_4
libdeflate=1.17=h2bbff1b_1
libexpat=2.5.0=h63175ca_1
libffi=3.4.4=hd77b12b_0
libglib=2.78.3=h16e383f_0
libiconv=1.17=hcfcfb64_2
libjpeg-turbo=2.0.0=h196d8e1_0
liblapack=3.9.0=5_hd5c7e75_netlib
liblapacke=3.9.0=5_hd5c7e75_netlib
libogg=1.3.4=h8ffe710_1
libopencv=4.7.0=py38ha0fd5da_1
libopus=1.3.1=h8ffe710_1
libpng=1.6.39=h8cc25b3_0
libprotobuf=3.21.12=h12be248_2
libsqlite=3.44.2=hcfcfb64_0
libtiff=4.5.1=hd77b12b_0
libuv=1.44.2=h2bbff1b_0
libvorbis=1.3.7=h0e60522_0
libwebp=1.3.2=hbc33d0d_0
libwebp-base=1.3.2=h2bbff1b_0
libxml2=2.12.4=hc3477c8_1
libzlib=1.2.13=hcfcfb64_5
libzopfli=1.0.3=h0e60522_0
lz4-c=1.9.4=h2bbff1b_0
m2w64-gcc-libgfortran=5.3.0=6
m2w64-gcc-libs=5.3.0=7
m2w64-gcc-libs-core=5.3.0=7
m2w64-gmp=6.1.0=2
m2w64-libwinpthread-git=5.0.0.4634.697f757=2
markupsafe=2.1.3=py38h2bbff1b_0
matplotlib-base=3.7.3=py38h2724991_0
mkl=2023.1.0=h6b88ed4_46358
mkl-service=2.4.0=py38h2bbff1b_1
mkl_fft=1.3.8=py38h2bbff1b_0
mkl_random=1.2.4=py38h59b6b97_0
mpc=1.1.0=h7edee0f_1
mpfr=4.0.2=h62dcd97_1
mpir=3.0.0=hec2e145_1
mpmath=1.3.0=py38haa95532_0
msys2-conda-epoch=20160418=1
munkres=1.1.4=pyh9f0ad1d_0
murmurhash=1.0.10=py38hd3f51b4_1
networkx=3.1=py38haa95532_0
numpy=1.24.3=py38h79a8e48_1
numpy-base=1.24.3=py38h8a87ada_1
opencv=4.7.0=py38haa244fe_1
openh264=2.3.1=h63175ca_2
openjpeg=2.4.0=h4fc8c34_0
openssl=3.2.0=hcfcfb64_1
packaging=23.2=pyhd8ed1ab_0
pandas=2.0.3=py38hf08cf0d_1
pathy=0.10.2=pyhd8ed1ab_0
pcre2=10.42=h17e33f8_0
pillow=10.0.1=py38h045eedc_0
pip=23.3.1=py38haa95532_0
pixman=0.43.0=h63175ca_0
platformdirs=4.1.0=pyhd8ed1ab_0
pooch=1.8.0=pyhd8ed1ab_0
preshed=3.0.9=py38hd3f51b4_1
py-opencv=4.7.0=py38h23ba278_1
pycparser=2.21=pyhd3eb1b0_0
pydantic=1.7.3=py38h294d835_1
pyopenssl=23.2.0=py38haa95532_0
pyparsing=3.1.1=pyhd8ed1ab_0
pysocks=1.7.1=py38haa95532_0
python=3.8.18=h1aa4202_0
python-dateutil=2.8.2=pyhd8ed1ab_0
python-tzdata=2023.4=pyhd8ed1ab_0
python_abi=3.8=2_cp38
pytorch=2.1.2=py3.8_cpu_0
pytorch-mutex=1.0=cpu
pytz=2023.3.post1=pyhd8ed1ab_0
pywavelets=1.4.1=py38he7056a7_1
pyyaml=6.0.1=py38h2bbff1b_0
qt-main=5.15.8=h720456b_6
requests=2.31.0=py38haa95532_0
safetensors=0.3.3=py38h4900a04_1
scikit-image=0.21.0=py38hd3f51b4_0
scikit-learn=1.3.2=py38h4f736e5_2
scipy=1.10.1=py38h1aea9ed_3
setuptools=68.2.2=py38haa95532_0
shellingham=1.5.4=pyhd8ed1ab_0
six=1.16.0=pyh6c4a22f_0
smart_open=5.2.1=pyhd8ed1ab_0
snappy=1.1.10=hfb803bf_0
spacy=3.0.6=py38h2f20550_1
spacy-legacy=3.0.12=pyhd8ed1ab_0
sqlite=3.41.2=h2bbff1b_0
srsly=2.4.8=py38hd3f51b4_1
svt-av1=1.4.1=h63175ca_0
sympy=1.12=py38haa95532_0
tbb=2021.8.0=h59b6b97_0
thinc=8.0.3=py38h2f20550_1
threadpoolctl=3.2.0=pyha21a80b_0
tifffile=2023.7.10=pyhd8ed1ab_0
timm=0.9.12=pyhd8ed1ab_0
tk=8.6.12=h2bbff1b_0
torchaudio=2.1.2=py38_cpu
torchvision=0.16.2=py38_cpu
tqdm=4.66.1=pyhd8ed1ab_0
typer=0.3.2=pyhd8ed1ab_0
typing_extensions=4.9.0=py38haa95532_0
ucrt=10.0.22621.0=h57928b3_0
unicodedata2=15.1.0=py38h91455d4_0
urllib3=1.26.18=py38haa95532_0
vc=14.2=h21ff451_1
vc14_runtime=14.38.33130=h82b7239_18
vs2015_runtime=14.38.33130=hcb4865c_18
wasabi=0.10.1=pyhd8ed1ab_1
wheel=0.41.2=py38haa95532_0
win_inet_pton=1.1.0=py38haa95532_0
x264=1!164.3095=h8ffe710_2
x265=3.5=h2d74725_3
xz=5.4.5=h8cc25b3_0
yaml=0.2.5=he774522_0
zfp=1.0.1=h63175ca_0
zipp=3.17.0=pyhd8ed1ab_0
zlib=1.2.13=hcfcfb64_5
zstd=1.5.5=hd43e919_0
